NYC Airbnb
…
Shared room
4.325000
4.516791
4.782297
4.532143
4.500000

Do hosts with more listings have higher or lower ratings?

First Ill look at the number of properties by each host. This code gave me some trouble in class  the first try and the better approach are both shown below.

airbnb_data %>% 
  count(calculated_host_listings_count)

## # A tibble: 21 x 2
##    calculated_host_listings_count     n
##                             <int> <int>
##  1                              1 30356
##  2                              2  5486
##  3                              3  2040
##  4                              4  1008
##  5                              5   545
##  6                              6   360
##  7                              7   245
##  8                              8   208
##  9                              9    72
## 10                             10    90
## # ... with 11 more rows

airbnb_data %>%
  count(host_id) %>%
  count(n)

## # A tibble: 21 x 2
##        n    nn
##    <int> <int>
##  1     1 30356
##  2     2  2743
##  3     3   680
##  4     4   252
##  5     5   109
##  6     6    60
##  7     7    35
##  8     8    26
##  9     9     8
## 10    10     9
## # ... with 11 more rows
…
